<?xml version="1.0" encoding="UTF-8"?>
<svg width="361px" height="253px" viewBox="0 0 361 253" version="1.1" xmlns="http://www.w3.org/2000/svg" xmlns:xlink="http://www.w3.org/1999/xlink">
    <!-- Generator: Sketch 52.2 (67145) - http://www.bohemiancoding.com/sketch -->
    <title>Illustration-marketing</title>
    <desc>Created with Sketch.</desc>
    <defs>
        <polygon id="path-1" points="0 11 136 11 136 0 0 0"></polygon>
        <polygon id="path-3" points="0 100 129 100 129 0 0 0"></polygon>
        <polygon id="path-5" points="0 4 140 4 140 0 0 0"></polygon>
        <polygon id="path-7" points="0 12 3 12 3 0 0 0"></polygon>
        <ellipse id="path-9" cx="3.61927705" cy="4.07168668" rx="3.61927705" ry="4.07168668"></ellipse>
    </defs>
    <g id="Homepage" stroke="none" stroke-width="1" fill="none" fill-rule="evenodd">
        <g id="Homepage-Alt" transform="translate(-929.000000, -1315.000000)">
            <g id="section1" transform="translate(0.000000, 1024.000000)">
                <g id="Group-43" transform="translate(149.000000, 263.000000)">
                    <g id="Group-39" transform="translate(779.000000, 0.000000)">
                        <g id="Illustration-marketing" transform="translate(0.000000, 27.111111)">
                            <rect id="Rectangle-10" fill-opacity="0" fill="#FFFFFF" x="0" y="1" width="361" height="253"></rect>
                            <g id="Group-42" opacity="0.5" transform="translate(73.000000, 56.000000)" fill="#AC4FD9">
                                <polygon id="Rectangle-9" opacity="0.98" transform="translate(219.000000, 164.000000) scale(-1, 1) rotate(-343.000000) translate(-219.000000, -164.000000) " points="215 160 223 160 223 168 215 168"></polygon>
                                <polygon id="Rectangle-9" opacity="0.87" transform="translate(156.500000, 149.500000) scale(-1, 1) rotate(-157.000000) translate(-156.500000, -149.500000) " points="153 146 160 146 160 153 153 153"></polygon>
                                <polygon id="Rectangle-9" opacity="0.98" transform="translate(113.500000, 126.500000) rotate(-335.000000) translate(-113.500000, -126.500000) " points="109 122 118 122 118 131 109 131"></polygon>
                                <polygon id="Rectangle-9" opacity="0.75" transform="translate(110.500000, 8.500000) scale(1, -1) rotate(-135.000000) translate(-110.500000, -8.500000) " points="107 5 114 5 114 12 107 12"></polygon>
                                <polygon id="Rectangle-9" opacity="0.94" transform="translate(5.000000, 172.000000) scale(-1, 1) rotate(-212.000000) translate(-5.000000, -172.000000) " points="2 169 8 169 8 175 2 175"></polygon>
                                <rect id="Rectangle-9" opacity="0.8" transform="translate(6.500000, 35.500000) rotate(-221.000000) translate(-6.500000, -35.500000) " x="2" y="31" width="9" height="9"></rect>
                                <polygon id="Rectangle-9-Copy" opacity="0.71" transform="translate(180.500000, 109.500000) scale(-1, 1) rotate(-48.000000) translate(-180.500000, -109.500000) " points="179 108 182 108 182 111 179 111"></polygon>
                                <polygon id="Rectangle-9-Copy" opacity="0.87" transform="translate(85.500000, 164.500000) rotate(-200.000000) translate(-85.500000, -164.500000) " points="84 163 87 163 87 166 84 166"></polygon>
                                <rect id="Rectangle-9-Copy" opacity="0.72" transform="translate(49.500000, 121.500000) scale(-1, 1) rotate(-111.000000) translate(-49.500000, -121.500000) " x="48" y="120" width="3" height="3"></rect>
                                <polygon id="Rectangle-9-Copy" opacity="0.91" transform="translate(46.500000, 14.500000) scale(1, -1) rotate(-331.000000) translate(-46.500000, -14.500000) " points="44 12 49 12 49 17 44 17"></polygon>
                                <rect id="Rectangle-9-Copy-2" opacity="0.77" transform="translate(223.500000, 16.500000) rotate(-169.000000) translate(-223.500000, -16.500000) " x="223" y="16" width="1" height="1"></rect>
                                <rect id="Rectangle-9-Copy-2" opacity="0.91" transform="translate(181.000000, 51.000000) scale(1, -1) rotate(-178.000000) translate(-181.000000, -51.000000) " x="180" y="50" width="2" height="2"></rect>
                                <rect id="Rectangle-9-Copy-2" opacity="0.7" transform="translate(155.000000, 61.000000) scale(1, -1) rotate(-70.000000) translate(-155.000000, -61.000000) " x="154" y="60" width="2" height="2"></rect>
                                <polygon id="Rectangle-9-Copy-2" opacity="0.74" transform="translate(82.500000, 1.500000) scale(1, -1) rotate(-53.000000) translate(-82.500000, -1.500000) " points="82 1 83 1 83 2 82 2"></polygon>
                            </g>
                            <g id="presentation" transform="translate(112.000000, 91.000000)">
                                <g id="Group-41-Copy" transform="translate(2.000000, 0.000000)">
                                    <mask id="mask-2" fill="white">
                                        <use xlink:href="#path-1"></use>
                                    </mask>
                                    <path stroke="#AC4FD9" stroke-width="1.5" d="M-0.75,11.75 L-0.75,-0.75 L136.75,-0.75 L136.75,11.75 L-0.75,11.75 Z"></path>
                                    <path d="M1.5,12.5 L1.5,1.5 L140.16,1.5 L140.16,12.5 L1.5,12.5 Z" id="Fill-2" stroke="#DCB5EE" stroke-width="3" fill="#ECD5F5" mask="url(#mask-2)"></path>
                                </g>
                                <g id="Group-41" transform="translate(5.000000, 12.000000)">
                                    <mask id="mask-4" fill="white">
                                        <use xlink:href="#path-3"></use>
                                    </mask>
                                    <path stroke="#AC4FD9" stroke-width="1.5" d="M-0.75,100.75 L-0.75,-0.75 L129.75,-0.75 L129.75,100.75 L-0.75,100.75 Z"></path>
                                    <path d="M1.02941176,104.021008 L1.02941176,1.0210084 L133.029412,1.0210084 L133.029412,104.021008 L1.02941176,104.021008 Z" id="Fill-2" stroke="#DCB5EE" stroke-width="3" fill="#ECD5F5" mask="url(#mask-4)"></path>
                                    <path d="M33.3044288,21.8124875 L32.0397229,23.0729917 L31.4435349,22.4787843 L33.1298094,20.798112 L33.7259974,20.2039047 L36.00846,22.4787843 L35.4122719,23.0729917 L34.1475661,21.8124875 L34.1475661,44.7476919 L33.3044288,44.7476919 L33.3044288,21.8124875 Z" id="Combined-Shape" fill="#AC4FD9" fill-rule="nonzero" mask="url(#mask-4)" transform="translate(33.725997, 32.475798) rotate(-304.000000) translate(-33.725997, -32.475798) "></path>
                                    <path d="M27.7247243,10.299767 C27.341013,10.1722882 26.4358481,10.0840336 25.7471357,10.0840336 C22.5790584,10.0840336 19.8438861,11.7510642 18.9977537,15.1047375 L16.8627451,15.1047375 L16.8627451,16.438362 L18.7714625,16.438362 C18.7419462,16.752156 18.7321075,17.06595 18.7321075,17.3993561 C18.7321075,17.7033441 18.7419462,18.007332 18.7714625,18.2917078 L16.8627451,18.2917078 L16.8627451,19.6253323 L18.9879149,19.6253323 C19.8045311,23.0182299 22.5593809,24.7048726 25.7471357,24.7048726 C26.4358481,24.7048726 27.341013,24.6264241 27.7247243,24.4989453 L27.7247243,22.9103632 C27.3213355,23.0280359 26.4358481,23.0868723 25.7471357,23.0868723 C23.4448683,23.0868723 21.5853447,21.9101448 20.8769548,19.6253323 L26.1702019,19.6253323 L26.1702019,18.2917078 L20.6014698,18.2917078 C20.5817923,18.007332 20.5621148,17.7131501 20.5621148,17.4091622 C20.5621148,17.0757561 20.5817923,16.74235 20.6113086,16.438362 L26.1702019,16.438362 L26.1702019,15.1047375 L20.8966323,15.1047375 C21.6345385,12.8787614 23.4743846,11.721646 25.7471357,11.721646 C26.4358481,11.721646 27.3213355,11.8000945 27.7247243,11.8981552 L27.7247243,10.299767 Z" id="€" fill="#AC4FD9" mask="url(#mask-4)"></path>
                                    <path d="M33.3044288,24.3334959 L32.0397229,25.5940001 L31.4435349,24.9997927 L33.1298094,23.3191204 L33.7259974,22.7249131 L36.00846,24.9997927 L35.4122719,25.5940001 L34.1475661,24.3334959 L34.1475661,47.2687003 L33.3044288,47.2687003 L33.3044288,24.3334959 Z" id="Combined-Shape" fill="#DCB5EE" fill-rule="nonzero" mask="url(#mask-4)" transform="translate(33.725997, 34.996807) rotate(-304.000000) translate(-33.725997, -34.996807) "></path>
                                </g>
                                <g id="Group-41-Copy-2" transform="translate(0.000000, 110.000000)">
                                    <mask id="mask-6" fill="white">
                                        <use xlink:href="#path-5"></use>
                                    </mask>
                                    <path stroke="#AC4FD9" stroke-width="1.5" d="M-0.75,4.75 L-0.75,-0.75 L140.75,-0.75 L140.75,4.75 L-0.75,4.75 Z"></path>
                                    <path d="M3.5,3.5 L3.5,2.5 L3,2.5 L2.5,3 L3,3.5 L3.5,3.5 Z M140.401707,3.5 L140.901707,3.5 L141.401707,3 L140.901707,2.5 L140.401707,2.5 L140.401707,3.5 Z M0.5,5.5 L0.5,0.5 L143.401707,0.5 L143.401707,5.5 L0.5,5.5 Z" id="Fill-2" stroke="#DCB5EE" stroke-width="3" fill="#ECD5F5" mask="url(#mask-6)"></path>
                                </g>
                                <g id="Group-41-Copy-2" transform="translate(68.000000, 116.000000)">
                                    <mask id="mask-8" fill="white">
                                        <use xlink:href="#path-7"></use>
                                    </mask>
                                    <path stroke="#AC4FD9" stroke-width="1.5" d="M-0.75,12.75 L-0.75,-0.75 L3.75,-0.75 L3.75,12.75 L-0.75,12.75 Z"></path>
                                    <path d="M-0.5,15.7222222 L-0.5,0.5 L5.51378049,0.5 L5.51378049,15.7222222 L-0.5,15.7222222 Z" id="Fill-2" stroke="#DCB5EE" stroke-width="3" fill="#ECD5F5" mask="url(#mask-8)"></path>
                                </g>
                                <polygon id="Fill-3" fill="#DCB5EE" opacity="0.349999994" points="19 96 34 96 34 84 19 84"></polygon>
                                <polygon id="Fill-4" fill="#DCB5EE" opacity="0.349999994" points="41 96 56 96 56 84 41 84"></polygon>
                                <polygon id="Fill-5" fill="#DCB5EE" opacity="0.349999994" points="64 96 79 96 79 84 64 84"></polygon>
                                <polygon id="Fill-6" fill="#DCB5EE" opacity="0.349999994" points="85 96 100 96 100 84 85 84"></polygon>
                                <polygon id="Fill-7" fill="#DCB5EE" opacity="0.349999994" points="105 96 120 96 120 84 105 84"></polygon>
                                <polygon id="Fill-8" fill="#DCB5EE" points="19 84 34 84 34 72 19 72"></polygon>
                                <polygon id="Fill-9" fill="#AC4FD9" points="41 85 56 85 56 58 41 58"></polygon>
                                <polygon id="Fill-10" fill="#AC4FD9" points="64 84 79 84 79 44 64 44"></polygon>
                                <polygon id="Fill-11" fill="#DCB5EE" points="85 84 100 84 100 61 85 61"></polygon>
                                <polygon id="Fill-12" fill="#AA00FF" points="105 84 120 84 120 29 105 29"></polygon>
                                <g id="Sun" transform="translate(66.000000, 123.000000)">
                                    <mask id="mask-10" fill="white">
                                        <use xlink:href="#path-9"></use>
                                    </mask>
                                    <ellipse stroke="#AC4FD9" stroke-width="1.5" cx="3.61927705" cy="4.07168668" rx="4.36927705" ry="4.82168668"></ellipse>
                                    <path d="M3.99807101,8.54750014 C2.13776103,8.54750014 0.629681814,6.7706537 0.629681814,4.57880255 C0.629681814,2.3869514 2.13776103,0.610104965 3.99807101,0.610104965 C5.858381,0.610104965 7.36646021,2.3869514 7.36646021,4.57880255 C7.36646021,6.7706537 5.858381,8.54750014 3.99807101,8.54750014 Z M3.6455177,5.92534464 C4.44196534,5.92534464 5.08823343,5.13510391 5.08823343,4.16122734 C5.08823343,3.18735077 4.44196534,2.39711004 3.6455177,2.39711004 C2.84907006,2.39711004 2.20280197,3.18735077 2.20280197,4.16122734 C2.20280197,5.13510391 2.84907006,5.92534464 3.6455177,5.92534464 Z" id="Combined-Shape" fill="#ECD5F5" mask="url(#mask-10)"></path>
                                </g>
                            </g>
                        </g>
                    </g>
                </g>
            </g>
        </g>
    </g>
</svg>