<?xml version="1.0" encoding="UTF-8"?>
<svg width="361px" height="253px" viewBox="0 0 361 253" version="1.1" xmlns="http://www.w3.org/2000/svg" xmlns:xlink="http://www.w3.org/1999/xlink">
    <!-- Generator: Sketch 52.6 (67491) - http://www.bohemiancoding.com/sketch -->
    <title>Illustration-aroma</title>
    <desc>Created with Sketch.</desc>
    <defs>
        <linearGradient x1="100%" y1="100%" x2="3.57179574%" y2="-9825.30421%" id="linearGradient-1">
            <stop stop-color="#E1CB5E" offset="0%"></stop>
            <stop stop-color="#D6BC4F" offset="37.4575748%"></stop>
            <stop stop-color="#D4B84C" offset="59.7483348%"></stop>
            <stop stop-color="#BF9B30" offset="100%"></stop>
        </linearGradient>
        <linearGradient x1="100%" y1="100%" x2="0%" y2="0%" id="linearGradient-2">
            <stop stop-color="#E1CB5E" offset="0%"></stop>
            <stop stop-color="#D6BC4F" offset="37.4575748%"></stop>
            <stop stop-color="#D4B84C" offset="59.7483348%"></stop>
            <stop stop-color="#BF9B30" offset="100%"></stop>
        </linearGradient>
        <rect id="path-3" x="0" y="0" width="122.548544" height="95.3587963"></rect>
        <linearGradient x1="100%" y1="100%" x2="0%" y2="6.123234e-15%" id="linearGradient-5">
            <stop stop-color="#EFE3B2" offset="0%"></stop>
            <stop stop-color="#DBC37B" offset="100%"></stop>
        </linearGradient>
        <rect id="path-6" x="0" y="0" width="52.1966019" height="24.9749228"></rect>
        <linearGradient x1="100%" y1="100%" x2="0%" y2="0%" id="linearGradient-8">
            <stop stop-color="#FAF2D6" offset="0%"></stop>
            <stop stop-color="#F2E1AC" offset="100%"></stop>
        </linearGradient>
        <rect id="path-9" x="0" y="0" width="27.2330097" height="43.1385031"></rect>
        <path d="M146.035192,0.972545006 C154.006364,2.19211129 160.112159,9.07818164 160.112159,17.390337 C160.112159,26.5636006 152.67576,34 143.502496,34 L141.145835,34 C136.850591,34 132.936145,32.3696136 129.987597,29.6939422 C127.401338,32.3502161 123.786457,34 119.786248,34 L117.427433,34 C113.17439,34 109.356923,32.1350751 106.748178,29.1783701 C104.139433,32.1350751 100.321966,34 96.0689227,34 L93.7101082,34 C89.457065,34 85.6395983,32.1350751 83.0308529,29.1783701 C80.4221075,32.1350751 76.6046408,34 72.3515976,34 L69.9927831,34 C65.6651268,34 61.7884641,32.0690667 59.1773487,29.0217537 C56.4772647,32.0749264 52.5305811,34 48.1342726,34 L45.775458,34 C40.3094293,34 35.5384537,31.0241241 32.9943085,26.6041497 C30.0159312,31.0632161 24.9371299,34 19.172406,34 L16.8157444,34 C7.64248079,34 0.206081353,26.5636006 0.206081353,17.390337 C0.206081353,8.21707339 7.64248079,0.780673956 16.8157444,0.780673956 L17.8082089,0.780673956 L145.881764,0.780673956 L146.035192,0.972545006 Z" id="path-11"></path>
        <circle id="path-13" cx="8.93162393" cy="8.93162393" r="8.93162393"></circle>
        <path d="M9.50137652,9.13896653 C10.9311455,3.87477362 15.7841469,0 21.5509259,0 C28.1116633,0 33.4896881,5.01516261 33.989805,11.3857806 C35.4334837,9.90663996 37.4578323,8.9869281 39.6990741,8.9869281 C44.0841127,8.9869281 47.6388889,12.5075648 47.6388889,16.8504902 C47.6388889,21.1934156 44.0841127,24.7140523 39.6990741,24.7140523 C36.0719672,24.7140523 33.0129138,22.3052838 32.0637912,19.014816 C29.846186,22.4424271 25.9664116,24.7140523 21.5509259,24.7140523 C18.6500574,24.7140523 15.9804113,23.7335789 13.8614088,22.0889856 C12.4074661,23.6999892 10.2932124,24.7140523 7.93981481,24.7140523 C3.55477618,24.7140523 0,21.1934156 0,16.8504902 C0,12.5075648 3.55477618,8.9869281 7.93981481,8.9869281 C8.47431586,8.9869281 8.99648115,9.03923651 9.50137652,9.13896653 Z" id="path-15"></path>
    </defs>
    <g id="Illustration-aroma" stroke="none" stroke-width="1" fill="none" fill-rule="evenodd">
        <g transform="translate(60.000000, 56.000000)">
            <g id="Group-42" opacity="0.5" fill="#BF9B30">
                <polygon id="Rectangle-9" opacity="0.98" transform="translate(219.000000, 164.000000) scale(-1, 1) rotate(-343.000000) translate(-219.000000, -164.000000) " points="215 160 223 160 223 168 215 168"></polygon>
                <polygon id="Rectangle-9" opacity="0.87" transform="translate(156.500000, 149.500000) scale(-1, 1) rotate(-157.000000) translate(-156.500000, -149.500000) " points="153 146 160 146 160 153 153 153"></polygon>
                <polygon id="Rectangle-9" opacity="0.98" transform="translate(113.500000, 126.500000) rotate(-335.000000) translate(-113.500000, -126.500000) " points="109 122 118 122 118 131 109 131"></polygon>
                <polygon id="Rectangle-9" opacity="0.75" transform="translate(110.500000, 8.500000) scale(1, -1) rotate(-135.000000) translate(-110.500000, -8.500000) " points="107 5 114 5 114 12 107 12"></polygon>
                <polygon id="Rectangle-9" opacity="0.94" transform="translate(5.000000, 172.000000) scale(-1, 1) rotate(-212.000000) translate(-5.000000, -172.000000) " points="2 169 8 169 8 175 2 175"></polygon>
                <rect id="Rectangle-9" opacity="0.8" transform="translate(6.500000, 35.500000) rotate(-221.000000) translate(-6.500000, -35.500000) " x="2" y="31" width="9" height="9"></rect>
                <polygon id="Rectangle-9-Copy" opacity="0.71" transform="translate(180.500000, 109.500000) scale(-1, 1) rotate(-48.000000) translate(-180.500000, -109.500000) " points="179 108 182 108 182 111 179 111"></polygon>
                <polygon id="Rectangle-9-Copy" opacity="0.87" transform="translate(85.500000, 164.500000) rotate(-200.000000) translate(-85.500000, -164.500000) " points="84 163 87 163 87 166 84 166"></polygon>
                <rect id="Rectangle-9-Copy" opacity="0.72" transform="translate(49.500000, 121.500000) scale(-1, 1) rotate(-111.000000) translate(-49.500000, -121.500000) " x="48" y="120" width="3" height="3"></rect>
                <polygon id="Rectangle-9-Copy" opacity="0.91" transform="translate(46.500000, 14.500000) scale(1, -1) rotate(-331.000000) translate(-46.500000, -14.500000) " points="44 12 49 12 49 17 44 17"></polygon>
                <rect id="Rectangle-9-Copy-2" opacity="0.77" transform="translate(223.500000, 16.500000) rotate(-169.000000) translate(-223.500000, -16.500000) " x="223" y="16" width="1" height="1"></rect>
                <rect id="Rectangle-9-Copy-2" opacity="0.91" transform="translate(181.000000, 51.000000) scale(1, -1) rotate(-178.000000) translate(-181.000000, -51.000000) " x="180" y="50" width="2" height="2"></rect>
                <rect id="Rectangle-9-Copy-2" opacity="0.7" transform="translate(155.000000, 61.000000) scale(1, -1) rotate(-70.000000) translate(-155.000000, -61.000000) " x="154" y="60" width="2" height="2"></rect>
                <polygon id="Rectangle-9-Copy-2" opacity="0.74" transform="translate(82.500000, 1.500000) scale(1, -1) rotate(-53.000000) translate(-82.500000, -1.500000) " points="82 1 83 1 83 2 82 2"></polygon>
            </g>
            <g id="Group-33" transform="translate(7.000000, 62.000000)" fill="#BF9B30">
                <polygon id="Rectangle-6" points="7 37 16 37 16 46 7 46"></polygon>
                <polygon id="Rectangle-6-Copy" points="222 30 229 30 229 37 222 37"></polygon>
                <polygon id="Rectangle-6-Copy-5" opacity="0.5" points="201 16 206 16 206 21 201 21"></polygon>
                <polygon id="Rectangle-6-Copy-2" opacity="0.300000012" points="21 18 24 18 24 21 21 21"></polygon>
                <polygon id="Rectangle-6-Copy-3" opacity="0.800000012" points="219 0 222 0 222 3 219 3"></polygon>
                <polygon id="Rectangle-6-Copy-4" opacity="0.800000012" points="0 3 3 3 3 6 0 6"></polygon>
            </g>
            <g id="House" transform="translate(38.000000, 61.000000)">
                <path d="M15.2123786,96.4374001 L150.242718,96.4940201 L15.2123786,96.4374001 Z" id="foundation" stroke="url(#linearGradient-1)" stroke-width="1.5"></path>
                <g transform="translate(20.885922, 0.000000)">
                    <mask id="mask-4" fill="white">
                        <use xlink:href="#path-3"></use>
                    </mask>
                    <rect fill="url(#linearGradient-8)" stroke="url(#linearGradient-2)" stroke-width="1.5" x="-0.75" y="-0.75" width="124.048544" height="96.8587963"></rect>
                    <path d="M4.53883495,4.54089506 L4.53883495,99.8996914 L127.087379,99.8996914 L127.087379,4.54089506 L4.53883495,4.54089506 Z M0,0 L131.626214,0 L131.626214,104.440586 L0,104.440586 L0,0 Z" id="Rectangle-4" fill="url(#linearGradient-5)" fill-rule="nonzero" mask="url(#mask-4)"></path>
                    <g id="Group-6" mask="url(#mask-4)">
                        <g transform="translate(15.885922, 61.302083)">
                            <mask id="mask-7" fill="white">
                                <use xlink:href="#path-6"></use>
                            </mask>
                            <rect stroke="url(#linearGradient-2)" stroke-width="1.5" x="-0.75" y="-0.75" width="53.6966019" height="26.4749228"></rect>
                            <rect id="Rectangle-3" stroke="url(#linearGradient-5)" stroke-width="3" fill="url(#linearGradient-8)" fill-rule="evenodd" mask="url(#mask-7)" x="1.5" y="1.5" width="56.8403721" height="29.8334834"></rect>
                            <path d="M10.2663901,-0.75 L10.2663901,26.0975653" id="Path-3" stroke="url(#linearGradient-2)" stroke-width="1.5" fill="none" mask="url(#mask-7)"></path>
                            <path d="M12.25,-0.75 L12.25,26.0975653" id="Path-3" stroke="#DBC37B" stroke-width="2.5" fill="none" mask="url(#mask-7)"></path>
                        </g>
                    </g>
                </g>
                <g id="Door" transform="translate(104.854369, 61.302083)">
                    <mask id="mask-10" fill="white">
                        <use xlink:href="#path-9"></use>
                    </mask>
                    <rect stroke="url(#linearGradient-2)" stroke-width="1.5" x="-0.75" y="-0.75" width="28.7330097" height="44.6385031"></rect>
                    <path d="M1.5,1.5 L33.5067961,1.5 L33.5067961,56.3759885 L1.5,56.3759885 L1.5,1.5 Z" id="Rectangle-2" stroke="url(#linearGradient-5)" stroke-width="3" fill="url(#linearGradient-8)" mask="url(#mask-10)"></path>
                    <ellipse id="Oval" fill="#BF9B30" mask="url(#mask-10)" cx="6.80825243" cy="20.4340278" rx="2.26941748" ry="2.27044753"></ellipse>
                </g>
                <g id="Toldo" transform="translate(0.000000, 14.893133)">
                    <mask id="mask-12" fill="white">
                        <use xlink:href="#path-11"></use>
                    </mask>
                    <path fill="url(#linearGradient-8)" stroke="url(#linearGradient-2)" stroke-width="1.5" d="M146.440382,0.278344564 C154.711501,1.68771894 160.862159,8.88804586 160.862159,17.390337 C160.862159,26.9778141 153.089974,34.75 143.502496,34.75 L141.145835,34.75 C137.016296,34.75 133.110826,33.3016106 130.017459,30.7145056 C127.267783,33.2855168 123.642644,34.75 119.786248,34.75 L117.427433,34.75 C113.350974,34.75 109.537718,33.1124783 106.748178,30.2780534 C103.958638,33.1124783 100.145382,34.75 96.0689227,34.75 L93.7101082,34.75 C89.6336486,34.75 85.8203931,33.1124783 83.0308529,30.2780534 C80.2413127,33.1124783 76.4280572,34.75 72.3515976,34.75 L69.9927831,34.75 C65.8435156,34.75 61.9684527,33.0531157 59.1692046,30.129471 C56.2864571,33.058257 52.3462927,34.75 48.1342726,34.75 L45.775458,34.75 C40.5619385,34.75 35.8008791,32.1515698 32.9523161,27.9502014 C29.7018357,32.1893529 24.6539272,34.75 19.172406,34.75 L16.8157444,34.75 C7.22826723,34.75 -0.543918647,26.9778141 -0.543918647,17.390337 C-0.543918647,7.80285983 7.22826723,0.0306739562 16.8157444,0.0306739562 L146.242335,0.0306739562 L146.440382,0.278344564 Z"></path>
                    <path d="M148.159737,4.16104544 L21.0405839,4.16104544 C11.9398101,4.16104544 4.56217517,11.1196326 4.56217517,19.7034848 C4.56217517,28.287337 11.9398101,35.2459242 21.0405839,35.2459242 L23.3946423,35.2459242 C29.0409269,35.2459242 34.0239433,32.5674346 36.9933387,28.4841086 C39.4199359,32.5215964 44.0173008,35.2459242 49.2892846,35.2459242 L51.643343,35.2459242 C55.8619069,35.2459242 59.6485147,33.5015466 62.2366058,30.7358116 C64.8246968,33.5015466 68.6113046,35.2459242 72.8298685,35.2459242 L75.1839269,35.2459242 C79.4024909,35.2459242 83.1890986,33.5015466 85.7771897,30.7358116 C88.3652807,33.5015466 92.1518885,35.2459242 96.3704524,35.2459242 L98.7245108,35.2459242 C102.943075,35.2459242 106.729683,33.5015466 109.317774,30.7358116 C111.905865,33.5015466 115.692472,35.2459242 119.911036,35.2459242 L122.265095,35.2459242 C126.23266,35.2459242 129.818141,33.7029478 132.383826,31.2184851 C135.308813,33.7210837 139.19142,35.2459242 143.45162,35.2459242 L145.805679,35.2459242 C154.906452,35.2459242 162.284087,28.287337 162.284087,19.7034848 C162.284087,11.9230445 156.222854,5.47787116 148.311138,4.33954762 L148.159737,4.16104544 Z M152.274641,-1.65035631 C162.219663,1.02100707 169.346263,9.64903998 169.346263,19.7034848 C169.346263,31.9661309 158.806784,41.9069696 145.805679,41.9069696 L143.45162,41.9069696 C139.593678,41.9069696 135.873713,41.0245111 132.560921,39.3921267 C129.461986,41.0190738 125.934868,41.9069696 122.265095,41.9069696 L119.911036,41.9069696 C116.119226,41.9069696 112.483764,40.958799 109.317774,39.233069 C106.151783,40.958799 102.516322,41.9069696 98.7245108,41.9069696 L96.3704524,41.9069696 C92.5786417,41.9069696 88.9431805,40.958799 85.7771897,39.233069 C82.6111989,40.958799 78.9757377,41.9069696 75.1839269,41.9069696 L72.8298685,41.9069696 C69.0380577,41.9069696 65.4025965,40.958799 62.2366058,39.233069 C59.070615,40.958799 55.4351538,41.9069696 51.643343,41.9069696 L49.2892846,41.9069696 C44.6552563,41.9069696 40.2814204,40.4898343 36.7182062,38.0115876 C32.8734136,40.5029857 28.2575768,41.9069696 23.3946423,41.9069696 L21.0405839,41.9069696 C8.03947841,41.9069696 -2.5,31.9661309 -2.5,19.7034848 C-2.5,7.44083876 8.03947841,-2.5 21.0405839,-2.5 L151.553994,-2.5 L152.274641,-1.65035631 Z" id="Combined-Shape" fill="url(#linearGradient-5)" fill-rule="nonzero" mask="url(#mask-12)"></path>
                </g>
            </g>
            <g id="Sun" transform="translate(183.000000, 23.000000) rotate(24.000000) translate(-183.000000, -23.000000) translate(174.000000, 14.000000)">
                <mask id="mask-14" fill="white">
                    <use xlink:href="#path-13"></use>
                </mask>
                <circle stroke="url(#linearGradient-2)" stroke-width="1.5" cx="8.93162393" cy="8.93162393" r="9.68162393"></circle>
                <ellipse id="Oval-2" fill="url(#linearGradient-5)" mask="url(#mask-14)" cx="10.9922384" cy="9.68945092" rx="9.36255655" ry="9.07934595"></ellipse>
            </g>
            <g id="Clouds" transform="translate(27.000000, 2.000000)">
                <mask id="mask-16" fill="white">
                    <use xlink:href="#path-15"></use>
                </mask>
                <path fill="url(#linearGradient-8)" stroke="url(#linearGradient-2)" stroke-width="1.5" d="M8.97093758,8.29700527 C10.7205251,2.96316728 15.7650482,-0.75 21.5509259,-0.75 C27.9792496,-0.75 33.3884211,3.81169429 34.5482265,9.91219023 C36.019868,8.83671977 37.8119993,8.2369281 39.6990741,8.2369281 C44.4967148,8.2369281 48.3888889,12.0917224 48.3888889,16.8504902 C48.3888889,21.609258 44.4967148,25.4640523 39.6990741,25.4640523 C36.2942572,25.4640523 33.2765546,23.5058596 31.8590915,20.57142 C29.3807531,23.6248186 25.6238019,25.4640523 21.5509259,25.4640523 C18.7854987,25.4640523 16.148062,24.6198679 13.9419417,23.0794518 C12.3428932,24.5946473 10.2111887,25.4640523 7.93981481,25.4640523 C3.14217413,25.4640523 -0.75,21.609258 -0.75,16.8504902 C-0.75,12.0917224 3.14217413,8.2369281 7.93981481,8.2369281 C8.28640021,8.2369281 8.63052928,8.25707698 8.97093758,8.29700527 Z"></path>
                <path d="M6.80555556,24.7140523 C2.26851852,21.7184096 1.13425926,18.3483115 3.40277778,14.6037582 C6.80555556,8.9869281 12.4768519,11.2336601 12.4768519,11.2336601 C12.4525682,11.2380329 13.8551953,3.37009804 21.5509259,3.37009804 C26.681413,3.37009804 30.4622772,4.49346405 32.8935185,6.74019608 L34.0277778,1.12336601 L20.4166667,-4.49346405 L10.2083333,5.32907052e-15 L6.80555556,5.61683007 L-3.40277778,8.9869281 L-2.26851852,20.2205882 L3.40277778,24.7140523 L6.80555556,24.7140523 Z" id="Path-5" fill="url(#linearGradient-8)" mask="url(#mask-16)"></path>
            </g>
        </g>
    </g>
</svg>