<?xml version="1.0" encoding="UTF-8"?>
<svg width="361px" height="253px" viewBox="0 0 361 253" version="1.1" xmlns="http://www.w3.org/2000/svg" xmlns:xlink="http://www.w3.org/1999/xlink">
    <!-- Generator: Sketch 52.6 (67491) - http://www.bohemiancoding.com/sketch -->
    <title>Illustration-logo</title>
    <desc>Created with Sketch.</desc>
    <defs>
        <linearGradient x1="100%" y1="100%" x2="0%" y2="0%" id="linearGradient-1">
            <stop stop-color="#E1CB5E" offset="0%"></stop>
            <stop stop-color="#D6BC4F" offset="37.4575748%"></stop>
            <stop stop-color="#D4B84C" offset="59.7483348%"></stop>
            <stop stop-color="#BF9B30" offset="100%"></stop>
        </linearGradient>
        <rect id="path-2" x="0" y="0" width="15" height="17"></rect>
        <linearGradient x1="100%" y1="100%" x2="0%" y2="0%" id="linearGradient-4">
            <stop stop-color="#FAF2D6" offset="0%"></stop>
            <stop stop-color="#F2E1AC" offset="100%"></stop>
        </linearGradient>
        <linearGradient x1="100%" y1="100%" x2="0%" y2="6.123234e-15%" id="linearGradient-5">
            <stop stop-color="#EFE3B2" offset="0%"></stop>
            <stop stop-color="#DBC37B" offset="100%"></stop>
        </linearGradient>
        <rect id="path-6" x="0" y="0" width="22" height="10"></rect>
        <path d="M0,5.6239545 C1.86029083,1.8746515 4.74047796,-8.49542542e-14 8.64056137,-8.52651283e-14 C14.4906865,-8.52651283e-14 19.913985,5.6239545 25.8666097,5.6239545 C31.8192344,5.6239545 39.8138549,-8.51971194e-14 44.1759957,-8.52651283e-14 C48.5381366,-8.52651283e-14 51.4359505,2.9890359 53.1692704,4.67894131 C54.324817,5.80554492 52.4831765,10.2673937 47.6443489,18.0644877 L15.3000853,27.2198888 L0,5.6239545 Z" id="path-8"></path>
        <path d="M109.81818,30.7135795 C108.212501,12.9152136 95.7034402,0.00213052022 80.0486034,0.00213052022 C69.6190972,0.00213052022 60.0696467,5.65440066 54.6962298,14.7133726 C49.3714697,5.53722205 40.2133902,0 29.95101,0 C14.2982887,0 1.78711236,12.913083 0.183549349,30.711449 C0.0566182395,31.4976109 -0.463799309,35.6350812 1.11860852,42.3824387 C3.39913745,52.1146551 8.66677849,60.9669666 16.3482261,67.9763781 L54.6708436,103 L93.6513872,67.9785086 C101.332835,60.9669666 106.600476,52.1167856 108.881005,42.3824387 C110.463413,35.6372117 109.942995,31.4997414 109.81818,30.7135795 Z" id="path-10"></path>
    </defs>
    <g id="Illustration-logo" stroke="none" stroke-width="1" fill="none" fill-rule="evenodd">
        <g>
            <rect id="Rectangle-10-Copy" fill-opacity="0" fill="#FFFFFF" x="0" y="0" width="361" height="253"></rect>
            <g id="Group-18" transform="translate(126.000000, 70.000000)">
                <g id="Group-37" transform="translate(113.500000, 34.000000) scale(1, -1) rotate(-90.000000) translate(-113.500000, -34.000000) translate(80.000000, -8.000000)" fill="#BF9B30">
                    <polygon id="Rectangle-6" opacity="0.200000003" points="22.75 73.0434783 33.8125 73.0434783 33.8125 84 22.75 84"></polygon>
                    <polygon id="Rectangle-6-Copy" points="58.3958333 64.5217391 67 64.5217391 67 73.0434783 58.3958333 73.0434783"></polygon>
                    <polygon id="Rectangle-6-Copy-7" opacity="0.800000012" points="10.4583333 43.826087 12.9166667 43.826087 12.9166667 46.2608696 10.4583333 46.2608696"></polygon>
                    <g id="Group-38" opacity="0.800000012" transform="translate(8.000000, 31.652174)" fill-rule="nonzero">
                        <path d="M0.351190476,2.69565217 L4.62360702,2.69565217 C4.81756416,2.69565217 4.97479749,2.53992513 4.97479749,2.34782609 C4.97479749,2.15572704 4.81756416,2 4.62360702,2 L0.351190476,2 C0.157233332,2 0,2.15572704 0,2.34782609 C0,2.53992513 0.157233332,2.69565217 0.351190476,2.69565217 Z" id="Line"></path>
                        <path d="M2,0.347826087 L2,4.4057971 C2,4.59789614 2.15723333,4.75362319 2.35119048,4.75362319 C2.54514762,4.75362319 2.70238095,4.59789614 2.70238095,4.4057971 L2.70238095,0.347826087 C2.70238095,0.155727044 2.54514762,0 2.35119048,0 C2.15723333,0 2,0.155727044 2,0.347826087 Z" id="Line-2"></path>
                    </g>
                    <g id="Group-38-Copy" transform="translate(38.729167, 54.782609)" fill-rule="nonzero">
                        <path d="M0.50483631,4 L6.64643508,4 C6.92524848,4 7.15127139,3.77614237 7.15127139,3.5 C7.15127139,3.22385763 6.92524848,3 6.64643508,3 L0.50483631,3 C0.226022915,3 0,3.22385763 0,3.5 C0,3.77614237 0.226022915,4 0.50483631,4 Z" id="Line"></path>
                        <path d="M3,0.5 L3,6.33333333 C3,6.60947571 3.22602291,6.83333333 3.50483631,6.83333333 C3.7836497,6.83333333 4.00967262,6.60947571 4.00967262,6.33333333 L4.00967262,0.5 C4.00967262,0.223857625 3.7836497,0 3.50483631,0 C3.22602291,0 3,0.223857625 3,0.5 Z" id="Line-2"></path>
                    </g>
                    <polygon id="Rectangle-6-Copy-5" opacity="0.200000003" points="43.6458333 42.6086957 49.7916667 42.6086957 49.7916667 48.6956522 43.6458333 48.6956522"></polygon>
                    <polygon id="Rectangle-6-Copy-2" points="23 28 26.6875 28 26.6875 31.6521739 23 31.6521739"></polygon>
                    <polygon id="Rectangle-6-Copy-8" points="4.16333634e-15 69 3.6875 69 3.6875 72.6521739 4.16333634e-15 72.6521739"></polygon>
                    <polygon id="Rectangle-6-Copy-6" opacity="0.800000012" points="26.4375 56 30.125 56 30.125 59.6521739 26.4375 59.6521739"></polygon>
                    <polygon id="Rectangle-6-Copy-3" opacity="0.400000006" points="11.6875 9.73913043 15.375 9.73913043 15.375 13.3913043 11.6875 13.3913043"></polygon>
                    <polygon id="Rectangle-6-Copy-4" points="26.4375 0 30.125 0 30.125 3.65217391 26.4375 3.65217391"></polygon>
                </g>
                <g id="Group-40" transform="translate(48.000000, 21.000000)">
                    <g id="Group-36-Copy">
                        <mask id="mask-3" fill="white">
                            <use xlink:href="#path-2"></use>
                        </mask>
                        <rect stroke="url(#linearGradient-1)" stroke-width="1.5" x="-0.75" y="-0.75" width="16.5" height="18.5"></rect>
                        <path d="M0.2,0.2 L18.425,0.2 L18.425,23.8 L0.2,23.8 L0.2,0.2 Z" id="Rectangle-8" stroke="url(#linearGradient-5)" stroke-width="3.6" fill="url(#linearGradient-4)" mask="url(#mask-3)"></path>
                    </g>
                    <ellipse id="Oval-4" fill="#BF9B30" cx="9" cy="6.5" rx="2" ry="2.5"></ellipse>
                </g>
                <g id="Group-36" transform="translate(44.000000, 40.000000)">
                    <mask id="mask-7" fill="white">
                        <use xlink:href="#path-6"></use>
                    </mask>
                    <rect stroke="url(#linearGradient-1)" stroke-width="1.5" x="-0.75" y="-0.75" width="23.5" height="11.5"></rect>
                    <rect id="Rectangle-8" stroke="url(#linearGradient-5)" stroke-width="3.6" fill="url(#linearGradient-4)" mask="url(#mask-7)" x="0.2" y="0.2" width="26.1" height="14.2666667"></rect>
                </g>
                <g id="Group-35" transform="translate(29.000000, 44.000000)">
                    <mask id="mask-9" fill="white">
                        <use xlink:href="#path-8"></use>
                    </mask>
                    <path stroke="url(#linearGradient-1)" stroke-width="1.5" d="M-0.671846563,5.29060454 C1.31235561,1.29156577 4.44898738,-0.75 8.64056137,-0.75 C11.023902,-0.75 13.1503477,-0.0233845641 16.6355702,1.68835472 C16.8868362,1.81176202 17.0631902,1.89912146 17.5487358,2.14024866 C21.6716712,4.18774265 23.5418401,4.8739545 25.8666097,4.8739545 C27.6714972,4.8739545 29.7918787,4.33285962 32.5507797,3.26391805 C33.3627869,2.94930427 34.18438,2.60920421 35.3228537,2.12237915 C40.9487671,-0.283328935 42.2374282,-0.75 44.1759957,-0.75 C47.0147074,-0.75 49.4158233,0.360767367 51.7489106,2.33161958 C52.3622642,2.84974391 52.5530482,3.03069246 53.6928326,4.14192858 C55.2734973,5.68300241 53.4118836,10.1932415 48.2816064,18.4599658 L48.1283227,18.7069611 L14.9944565,28.0858679 L-0.870979882,5.69194563 L-0.671846563,5.29060454 Z"></path>
                    <path d="M-1.61243175,6.0413059 C0.545246302,1.69263705 4.04090057,-0.582608696 8.64056137,-0.582608696 C11.2317964,-0.582608696 13.4766869,0.184479816 17.0984539,1.9632819 C17.3516101,2.08761753 17.5287606,2.17537156 18.0157585,2.41721995 C21.9907253,4.39123118 23.7625166,5.0413458 25.8666097,5.0413458 C27.5125881,5.0413458 29.52343,4.52820408 32.1714334,3.50222997 C32.9699181,3.19285554 33.7816974,2.8568179 34.9100211,2.37433312 C40.7376969,-0.117651006 42.0216268,-0.582608696 44.1759957,-0.582608696 C47.2992219,-0.582608696 49.9205509,0.630030256 52.4264888,2.74689636 C52.7954095,3.05853845 53.1542546,3.38286931 53.5390677,3.74784402 C53.688182,3.88927103 53.8368012,4.03254171 54.011302,4.20253823 C54.0950592,4.2841335 54.3737013,4.55668923 54.4258196,4.60750207 C56.6016498,6.7288342 54.7120735,11.3068197 49.1737669,20.2310263 L48.8058859,20.823815 L14.5665761,30.5156299 L-2.09035172,7.00452451 L-1.61243175,6.0413059 Z" id="Path-2" stroke="url(#linearGradient-5)" stroke-width="3.6" fill="url(#linearGradient-4)" mask="url(#mask-9)"></path>
                </g>
                <g id="like" transform="translate(0.000000, 49.000000)">
                    <mask id="mask-11" fill="white">
                        <use xlink:href="#path-10"></use>
                    </mask>
                    <path fill="url(#linearGradient-4)" stroke="url(#linearGradient-1)" stroke-width="1.5" d="M110.562897,30.6213432 C110.697636,31.4837435 110.781872,32.7276171 110.73954,34.3331277 C110.675534,36.7606917 110.3255,39.5088563 109.611233,42.553514 C107.296237,52.4349843 101.950527,61.418607 94.1526283,68.5364131 L54.666542,104.012102 L54.1648784,103.553624 L15.8426848,68.5303889 C8.05050413,61.4199322 2.70380377,52.4346437 0.38842024,42.5536844 C-0.325988899,39.5074571 -0.676003382,36.7583098 -0.739665313,34.3311606 C-0.782256834,32.7073333 -0.69467023,31.4454345 -0.56342507,30.6441495 C1.07351139,12.4753629 13.8908482,-0.75 29.95101,-0.75 C40.0318393,-0.75 49.1415888,4.46289802 54.7037326,13.2776374 C60.3451643,4.55608208 69.8255878,-0.74786948 80.0486034,-0.74786948 C96.1024875,-0.74786948 108.914259,12.4641992 110.562897,30.6213432 Z"></path>
                    <path d="M112.484846,30.487389 C110.879168,12.6890231 98.3701068,-0.224059956 82.71527,-0.224059956 C72.2857639,-0.224059956 59.6883266,1.88200266 54.3149097,10.9409746 C48.9901496,1.76482405 42.8800569,-0.226190476 32.6176767,-0.226190476 C16.9649554,-0.226190476 4.45377903,12.6868926 2.85021602,30.4852585 C2.72328491,31.2714204 2.20286736,35.4088907 3.78527519,42.1562482 C6.06580412,51.8884646 11.3334452,60.7407761 19.0148928,67.7501876 L57.3375102,102.77381 L96.3180539,67.7523182 C103.999502,60.7407761 109.267143,51.8905951 111.547672,42.1562482 C113.130079,35.4110212 112.609662,31.273551 112.484846,30.487389 Z M115.463974,30.1221116 C115.612532,31.1110373 115.700267,32.465546 115.655425,34.1662412 C115.587415,36.7456722 115.217981,39.6461472 114.468584,42.8405495 C112.048883,53.1689465 106.465884,62.551343 98.323018,69.9839362 L57.320304,106.822216 L55.3136496,104.988305 L16.9927274,69.9662307 C8.8685732,62.5528443 3.28453634,53.1687048 0.864522063,42.8412309 C0.114835625,39.6445818 -0.254577491,36.7430703 -0.322225085,34.1639653 C-0.36684538,32.4627898 -0.278139312,31.0994438 -0.128628588,30.116801 C1.6460093,10.8933863 15.3596112,-3.22619048 32.6176767,-3.22619048 C43.0996216,-3.22619048 49.3975165,-0.94668988 54.4845108,5.75802788 C60.4659229,-0.591490979 70.4189887,-3.22405996 82.71527,-3.22405996 C99.9753985,-3.22405996 113.688327,10.8959091 115.463974,30.1221116 Z" id="Mask" fill="url(#linearGradient-5)" fill-rule="nonzero" mask="url(#mask-11)"></path>
                    <path d="M15.8888889,35.5320681 C16.9364965,23.4037427 23.5562215,16.8732121 35.7480639,15.9404762" id="Path-6" stroke="url(#linearGradient-5)" stroke-width="2" stroke-linecap="round" mask="url(#mask-11)"></path>
                    <path d="M14.6666667,34.3058777 C15.7142742,22.1775523 22.3339992,15.6470216 34.5258416,14.7142857" id="Path-6" stroke="url(#linearGradient-1)" stroke-width="2" stroke-linecap="round" mask="url(#mask-11)"></path>
                </g>
            </g>
        </g>
    </g>
</svg>