<?xml version="1.0" encoding="UTF-8"?>
<svg width="135px" height="129px" viewBox="0 0 135 129" version="1.1" xmlns="http://www.w3.org/2000/svg" xmlns:xlink="http://www.w3.org/1999/xlink">
    <!-- Generator: Sketch 52.4 (67378) - http://www.bohemiancoding.com/sketch -->
    <title>illustrationhouse</title>
    <desc>Created with Sketch.</desc>
    <g id="Homepage" stroke="none" stroke-width="1" fill="none" fill-rule="evenodd">
        <g transform="translate(-457.000000, -3699.000000)" fill="#DEDEDE" fill-rule="nonzero" id="section3-copy-2">
            <g transform="translate(0.000000, 3173.000000)">
                <g id="illustrationhouse" transform="translate(457.000000, 526.000000)">
                    <path d="M58.740541,67.7774314 L27.824278,67.7774314 C26.1177781,67.7774314 24.732758,69.1446909 24.732758,70.8293077 L24.732758,122.712779 L18.5494523,122.712779 L18.5494523,52.5175252 C18.5494523,50.8329083 17.1644322,49.4656489 15.4579322,49.4656489 C13.7514323,49.4656489 12.3664122,50.8329083 12.3664122,52.5175252 L12.3664122,125.764918 C12.3664122,127.449534 13.7514323,128.816794 15.4579322,128.816794 L58.740541,128.816794 C60.447041,128.816794 61.8320611,127.449534 61.8320611,125.764918 L61.8320611,70.8293077 C61.8320611,69.1446909 60.447041,67.7774314 58.740541,67.7774314 Z M55.649021,122.712779 L30.9160637,122.712779 L30.9160637,73.881184 L55.649021,73.881184 L55.649021,122.712779 Z" id="Shape"></path>
                    <circle id="Oval" cx="49.4656489" cy="97.9007634" r="3.09160305"></circle>
                    <path d="M68.0152672,21.6412214 C59.491865,21.6412214 52.5572519,28.5755687 52.5572519,37.0992366 C52.5572519,45.6226389 59.4915993,52.5572519 68.0152672,52.5572519 C76.5386694,52.5572519 83.4732824,45.6229045 83.4732824,37.0992366 C83.4732824,28.5755687 76.5386694,21.6412214 68.0152672,21.6412214 Z M68.012079,46.3739927 C63.9867036,46.3739927 60.5891391,43.7801217 59.3093402,40.1907334 L76.718006,40.1907334 C75.4382071,43.7801217 72.0374543,46.3739927 68.012079,46.3739927 Z M59.3125284,34.0077399 C60.5894048,30.4183516 63.9901575,27.8244806 68.0152672,27.8244806 C72.0406425,27.8244806 75.4413953,30.4183516 76.7211942,34.0077399 L59.3125284,34.0077399 Z" id="Shape"></path>
                    <path d="M108.206448,66.9847328 L71.1067943,66.9847328 C69.4002905,66.9847328 68.0152672,68.3697561 68.0152672,70.07626 L68.0152672,107.175648 C68.0152672,108.882152 69.4002905,110.267176 71.1067943,110.267176 L89.6564885,110.267176 L108.206183,110.267176 C109.912687,110.267176 111.29771,108.882152 111.29771,107.175648 L111.29771,70.07626 C111.297976,68.3697561 109.912952,66.9847328 108.206448,66.9847328 Z M105.114656,104.084121 L92.7482814,104.084121 L92.7482814,82.4426342 C92.7482814,80.7361304 91.3632581,79.3511071 89.6567542,79.3511071 C87.9502504,79.3511071 86.5652271,80.7361304 86.5652271,82.4426342 L86.5652271,104.084121 L74.1988528,104.084121 L74.1988528,73.1677871 L105.115187,73.1677871 L105.115187,104.084121 L105.114656,104.084121 Z" id="Shape"></path>
                    <path d="M128.020064,36.7396586 L119.545634,31.2344557 C119.582548,31.0444211 119.659277,30.8694101 119.659277,30.6701506 L119.659277,6.13381927 C121.352844,6.13381927 122.727369,4.75982477 122.727369,3.06690963 C122.727369,1.37399449 121.352844,0 119.659277,0 L116.591185,0 L104.318553,0 L101.250198,0 C99.55663,0 98.1821058,1.37399449 98.1821058,3.06690963 C98.1821058,4.75982477 99.55663,6.13381927 101.250198,6.13381927 L101.250198,15.3348117 C101.250198,17.0277269 102.624722,18.4017214 104.31829,18.4017214 C106.011857,18.4017214 107.386382,17.0277269 107.386382,15.3348117 L107.386382,6.13381927 L113.522829,6.13381927 L113.522829,27.3175303 L74.8115035,2.16497041 C70.4453524,-0.668942648 64.557548,-0.668942648 60.1884965,2.16497041 L6.98019918,36.7396586 C2.61114768,39.5796338 0,44.3855835 0,49.5963779 L0,52.1390452 C0,53.8319603 1.37452417,55.2059548 3.06809193,55.2059548 C4.76165969,55.2059548 6.13618386,53.8319603 6.13618386,52.1390452 L6.13618386,49.5963779 C6.13618386,46.4680562 7.70107949,43.585119 10.3243561,41.879816 L63.5300167,7.3117171 C65.9017498,5.77220015 69.0987775,5.77509943 71.4673466,7.3117171 L124.675908,41.8829789 C127.152055,43.4899699 128.682937,46.1522984 128.848523,49.0750348 L119.659277,49.0750348 C117.965709,49.0750348 116.591185,50.4490293 116.591185,52.1419445 L116.591185,122.682975 L70.5682238,122.682975 C68.874656,122.682975 67.5001318,124.056969 67.5001318,125.749884 C67.5001318,127.442799 68.874656,128.816794 70.5682238,128.816794 L119.659277,128.816794 C121.352844,128.816794 122.727369,127.442799 122.727369,125.749884 L122.727369,55.2059548 L131.931908,55.2059548 C133.625476,55.2059548 135,53.8319603 135,52.1390452 L135,49.5963779 C135.000264,44.3855835 132.389116,39.5796338 128.020064,36.7396586 Z" id="Shape"></path>
                </g>
            </g>
        </g>
    </g>
</svg>