<?xml version="1.0" encoding="UTF-8"?>
<svg width="142px" height="142px" viewBox="0 0 142 142" version="1.1" xmlns="http://www.w3.org/2000/svg" xmlns:xlink="http://www.w3.org/1999/xlink">
    <!-- Generator: Sketch 52.6 (67491) - http://www.bohemiancoding.com/sketch -->
    <title>illustration-house-hover</title>
    <desc>Created with Sketch.</desc>
    <defs>
        <linearGradient x1="100%" y1="100%" x2="0%" y2="0%" id="linearGradient-1">
            <stop stop-color="#E1CB5E" offset="0%"></stop>
            <stop stop-color="#D6BC4F" offset="37.4575748%"></stop>
            <stop stop-color="#D4B84C" offset="59.7483348%"></stop>
            <stop stop-color="#BF9B30" offset="100%"></stop>
        </linearGradient>
        <path d="M58.740541,67.7774314 C60.447041,67.7774314 61.8320611,69.1446909 61.8320611,70.8293077 L61.8320611,125.764918 C61.8320611,127.449534 60.447041,128.816794 58.740541,128.816794 L15.4579322,128.816794 C13.7514323,128.816794 12.3664122,127.449534 12.3664122,125.764918 L12.3664122,52.5175252 C12.3664122,50.8329083 13.7514323,49.4656489 15.4579322,49.4656489 C17.1644322,49.4656489 18.5494523,50.8329083 18.5494523,52.5175252 L18.5494523,122.712779 L24.732758,122.712779 L24.732758,70.8293077 C24.732758,69.1446909 26.1177781,67.7774314 27.824278,67.7774314 L58.740541,67.7774314 Z M55.649021,122.712779 L55.649021,73.881184 L30.9160637,73.881184 L30.9160637,122.712779 L55.649021,122.712779 Z M49.4656489,100.992366 C47.7582036,100.992366 46.3740458,99.6082086 46.3740458,97.9007634 C46.3740458,96.1933181 47.7582036,94.8091603 49.4656489,94.8091603 C51.1730941,94.8091603 52.5572519,96.1933181 52.5572519,97.9007634 C52.5572519,99.6082086 51.1730941,100.992366 49.4656489,100.992366 Z M68.0152672,21.6412214 C76.5386694,21.6412214 83.4732824,28.5755687 83.4732824,37.0992366 C83.4732824,45.6229045 76.5386694,52.5572519 68.0152672,52.5572519 C59.4915993,52.5572519 52.5572519,45.6226389 52.5572519,37.0992366 C52.5572519,28.5755687 59.491865,21.6412214 68.0152672,21.6412214 Z M68.012079,46.3739927 C72.0374543,46.3739927 75.4382071,43.7801217 76.718006,40.1907334 L59.3093402,40.1907334 C60.5891391,43.7801217 63.9867036,46.3739927 68.012079,46.3739927 Z M59.3125284,34.0077399 L76.7211942,34.0077399 C75.4413953,30.4183516 72.0406425,27.8244806 68.0152672,27.8244806 C63.9901575,27.8244806 60.5894048,30.4183516 59.3125284,34.0077399 Z M108.206448,66.9847328 C109.912952,66.9847328 111.297976,68.3697561 111.29771,70.07626 L111.29771,107.175648 C111.29771,108.882152 109.912687,110.267176 108.206183,110.267176 L89.6564885,110.267176 L71.1067943,110.267176 C69.4002905,110.267176 68.0152672,108.882152 68.0152672,107.175648 L68.0152672,70.07626 C68.0152672,68.3697561 69.4002905,66.9847328 71.1067943,66.9847328 L108.206448,66.9847328 Z M105.114656,104.084121 L105.115187,104.084121 L105.115187,73.1677871 L74.1988528,73.1677871 L74.1988528,104.084121 L86.5652271,104.084121 L86.5652271,82.4426342 C86.5652271,80.7361304 87.9502504,79.3511071 89.6567542,79.3511071 C91.3632581,79.3511071 92.7482814,80.7361304 92.7482814,82.4426342 L92.7482814,104.084121 L105.114656,104.084121 Z M128.020064,36.7396586 C132.389116,39.5796338 135.000264,44.3855835 135,49.5963779 L135,52.1390452 C135,53.8319603 133.625476,55.2059548 131.931908,55.2059548 L122.727369,55.2059548 L122.727369,125.749884 C122.727369,127.442799 121.352844,128.816794 119.659277,128.816794 L70.5682238,128.816794 C68.874656,128.816794 67.5001318,127.442799 67.5001318,125.749884 C67.5001318,124.056969 68.874656,122.682975 70.5682238,122.682975 L116.591185,122.682975 L116.591185,52.1419445 C116.591185,50.4490293 117.965709,49.0750348 119.659277,49.0750348 L128.848523,49.0750348 C128.682937,46.1522984 127.152055,43.4899699 124.675908,41.8829789 L71.4673466,7.3117171 C69.0987775,5.77509943 65.9017498,5.77220015 63.5300167,7.3117171 L10.3243561,41.879816 C7.70107949,43.585119 6.13618386,46.4680562 6.13618386,49.5963779 L6.13618386,52.1390452 C6.13618386,53.8319603 4.76165969,55.2059548 3.06809193,55.2059548 C1.37452417,55.2059548 0,53.8319603 0,52.1390452 L0,49.5963779 C0,44.3855835 2.61114768,39.5796338 6.98019918,36.7396586 L60.1884965,2.16497041 C64.557548,-0.668942648 70.4453524,-0.668942648 74.8115035,2.16497041 L113.522829,27.3175303 L113.522829,6.13381927 L107.386382,6.13381927 L107.386382,15.3348117 C107.386382,17.0277269 106.011857,18.4017214 104.31829,18.4017214 C102.624722,18.4017214 101.250198,17.0277269 101.250198,15.3348117 L101.250198,6.13381927 C99.55663,6.13381927 98.1821058,4.75982477 98.1821058,3.06690963 C98.1821058,1.37399449 99.55663,-1.42108547e-14 101.250198,-1.42108547e-14 L104.318553,-1.42108547e-14 L116.591185,-1.42108547e-14 L119.659277,-1.42108547e-14 C121.352844,-1.42108547e-14 122.727369,1.37399449 122.727369,3.06690963 C122.727369,4.75982477 121.352844,6.13381927 119.659277,6.13381927 L119.659277,30.6701506 C119.659277,30.8694101 119.582548,31.0444211 119.545634,31.2344557 L128.020064,36.7396586 Z" id="path-2"></path>
        <filter x="-7.4%" y="-3.1%" width="110.4%" height="106.2%" filterUnits="objectBoundingBox" id="filter-3">
            <feMorphology radius="2" operator="erode" in="SourceAlpha" result="shadowSpreadOuter1"></feMorphology>
            <feOffset dx="0" dy="6" in="shadowSpreadOuter1" result="shadowOffsetOuter1"></feOffset>
            <feGaussianBlur stdDeviation="3" in="shadowOffsetOuter1" result="shadowBlurOuter1"></feGaussianBlur>
            <feColorMatrix values="0 0 0 0 0.749019608   0 0 0 0 0.607843137   0 0 0 0 0.188235294  0 0 0 0.5 0" type="matrix" in="shadowBlurOuter1"></feColorMatrix>
        </filter>
    </defs>
    <g id="illustration-house-hover" stroke="none" stroke-width="1" fill="none" fill-rule="evenodd">
        <g id="illustration-house" transform="translate(4.000000, 7.000000)">
            <g id="Combined-Shape">
                <use fill="black" fill-opacity="1" filter="url(#filter-3)" xlink:href="#path-2"></use>
                <use fill="url(#linearGradient-1)" fill-rule="evenodd" xlink:href="#path-2"></use>
            </g>
        </g>
    </g>
</svg>