<?xml version="1.0" encoding="UTF-8"?>
<svg width="638px" height="476px" viewBox="0 0 638 476" version="1.1" xmlns="http://www.w3.org/2000/svg" xmlns:xlink="http://www.w3.org/1999/xlink">
    <!-- Generator: Sketch 52.2 (67145) - http://www.bohemiancoding.com/sketch -->
    <title>Illustration-fragrance</title>
    <desc>Created with Sketch.</desc>
    <defs>
        <rect id="path-1" x="0" y="0" width="53.1173141" height="24.1303276"></rect>
        <rect id="path-3" x="0" y="0" width="36.2163505" height="41.0215569"></rect>
        <path d="M0,13.5707864 C4.49152966,4.52359548 11.4455208,-8.45149788e-14 20.8619733,-8.52651283e-14 C34.9866521,-8.52651283e-14 48.0807908,13.5707864 62.4529469,13.5707864 C76.8251031,13.5707864 96.1275015,-8.51010205e-14 106.659556,-8.52651283e-14 C117.191611,-8.52651283e-14 124.188161,7.21264155 128.373129,11.2904387 C131.163108,14.0089701 126.716608,24.7755574 115.033629,43.5902007 L36.9408835,65.6824834 L0,13.5707864 Z" id="path-5"></path>
        <path d="M265.147579,74.1128735 C261.270791,31.1648334 231.068622,0.00514101509 193.271218,0.00514101509 C168.089975,0.00514101509 145.033559,13.644254 132.059855,35.5038502 C119.20363,13.3614982 97.092149,0 72.3144184,0 C34.5221224,0 4.31484585,31.1596924 0.443165837,74.1077325 C0.1367004,76.004767 -1.11980789,85.9886183 2.70079455,102.270213 C8.20695689,125.75437 20.9252725,147.115288 39.4715392,164.029227 L131.998562,248.542374 L226.114098,164.034368 C244.660364,147.115288 257.37868,125.759511 262.884842,102.270213 C266.705445,85.9937593 265.448936,76.009908 265.147579,74.1128735 Z" id="path-7"></path>
        <path d="M265.147579,74.1128735 C261.270791,31.1648334 231.068622,0.00514101509 193.271218,0.00514101509 C168.089975,0.00514101509 137.674428,5.08713911 124.700725,26.9467352 C111.8445,4.80438328 97.092149,-7.10542736e-15 72.3144184,-7.10542736e-15 C34.5221224,-7.10542736e-15 4.31484585,31.1596924 0.443165837,74.1077325 C0.1367004,76.004767 -1.11980789,85.9886183 2.70079455,102.270213 C8.20695689,125.75437 20.9252725,147.115288 39.4715392,164.029227 L131.998562,248.542374 L226.114098,164.034368 C244.660364,147.115288 257.37868,125.759511 262.884842,102.270213 C266.705445,85.9937593 265.448936,76.009908 265.147579,74.1128735 Z" id="path-9"></path>
    </defs>
    <g id="Homepage" stroke="none" stroke-width="1" fill="none" fill-rule="evenodd">
        <g id="Homepage-Alt" transform="translate(-401.000000, -2561.000000)">
            <g id="section3-copy-3" transform="translate(0.000000, 2049.000000)">
                <g id="Illustration-fragrance" transform="translate(401.000000, 512.000000)">
                    <polygon id="Rectangle-10-Copy" points="0 29 638 29 638 476 0 476"></polygon>
                    <g id="Group-18" transform="translate(186.000000, 96.000000)">
                        <g id="Group-36" transform="translate(106.234628, 44.286930)">
                            <mask id="mask-2" fill="white">
                                <use xlink:href="#path-1"></use>
                            </mask>
                            <rect stroke="#AC4FD9" stroke-width="4.5" x="-2.25" y="-2.25" width="57.6173141" height="28.6303276"></rect>
                            <path d="M1.5,1.5 L63.5565412,1.5 L63.5565412,34.8369266 L1.5,34.8369266 L1.5,1.5 Z" id="Rectangle-8" stroke="#DCB5EE" stroke-width="9" fill="#ECD5F5" mask="url(#mask-2)"></path>
                        </g>
                        <g id="Group-40" transform="translate(115.892322, 0.836569)">
                            <g id="Group-36-Copy">
                                <mask id="mask-4" fill="white">
                                    <use xlink:href="#path-3"></use>
                                </mask>
                                <rect stroke="#AC4FD9" stroke-width="4.5" x="-2.25" y="-2.25" width="40.7163505" height="45.5215569"></rect>
                                <path d="M1.5,1.5 L44.5686929,1.5 L44.5686929,57.2904764 L1.5,57.2904764 L1.5,1.5 Z" id="Rectangle-8" stroke="#DCB5EE" stroke-width="9" fill="#ECD5F5" mask="url(#mask-4)"></path>
                            </g>
                            <ellipse id="Oval-4" fill="#AC4FD9" cx="21.7298103" cy="15.6847129" rx="4.82884673" ry="6.0325819"></ellipse>
                        </g>
                        <g id="Group-35" transform="translate(70.018278, 53.939061)">
                            <mask id="mask-6" fill="white">
                                <use xlink:href="#path-5"></use>
                            </mask>
                            <path stroke="#AC4FD9" stroke-width="4.5" d="M-2.0153102,12.5702742 C2.84809648,2.77401939 10.5713746,-2.25 20.8619733,-2.25 C26.7030818,-2.25 31.886666,-0.479767694 40.358459,3.67868953 C40.9659112,3.97686299 41.392037,4.18782893 42.5649565,4.76997788 C52.4577156,9.67999869 56.932017,11.3207864 62.4529469,11.3207864 C66.7444309,11.3207864 71.8182228,10.0267638 78.4331014,7.4652924 C80.3879844,6.7083054 82.3675599,5.88932823 85.1120792,4.71641477 C98.7795869,-1.12460953 101.889021,-2.25 106.659556,-2.25 C113.63211,-2.25 119.521395,0.472841823 125.226701,5.28956576 C126.718957,6.54940868 127.182601,6.98889703 129.943351,9.67894825 C134.009718,13.6411807 129.503124,24.5532755 116.945095,44.7771283 L116.485126,45.5178776 L36.0242908,68.2800881 L-2.61332663,13.7748457 L-2.0153102,12.5702742 Z"></path>
                            <path d="M-4.0306204,14.507367 C1.20466329,3.9620484 9.69722847,-1.5623949 20.8619733,-1.5623949 C27.1483293,-1.5623949 32.5856258,0.294482044 41.3498924,4.59650262 C41.9613939,4.89666374 42.3892263,5.10847454 43.565257,5.69216763 C53.1410788,10.4448847 57.4046412,12.0083915 62.4529469,12.0083915 C66.4040998,12.0083915 71.2432742,10.7742059 77.6206237,8.30471255 C79.5465396,7.55894246 81.5050924,6.74866265 84.2278687,5.58504141 C98.3275047,-0.440659691 101.426839,-1.5623949 106.659556,-1.5623949 C114.241481,-1.5623949 120.60252,1.37855604 126.678166,6.50794175 C127.571377,7.26203807 128.439924,8.04659486 129.371039,8.92919954 C129.73163,9.27100378 130.090933,9.61717728 130.512709,10.0278294 C130.715079,10.2248618 131.387868,10.8825762 131.513574,11.0050629 C136.856328,16.2109964 132.289641,27.2685988 118.856562,48.9016609 L117.936623,50.3831596 L35.1076981,73.8152979 L-5.22665327,16.9165101 L-4.0306204,14.507367 Z" id="Path-2" stroke="#DCB5EE" stroke-width="9" fill="#ECD5F5" mask="url(#mask-6)"></path>
                        </g>
                        <g id="like" transform="translate(0.000000, 66.004225)">
                            <mask id="mask-8" fill="white">
                                <use xlink:href="#path-7"></use>
                            </mask>
                            <path stroke="#AC4FD9" fill="#ECD5F5" stroke-width="4.5" d="M267.381731,73.836259 C267.709821,75.9426793 267.913855,78.9660445 267.811163,82.8585992 C267.655839,88.7461895 266.806899,95.4074848 265.075461,102.783719 C259.465549,126.715616 246.51226,148.471464 227.617341,165.708512 L131.985662,251.577891 L130.481143,250.203681 L37.9553919,165.691695 C19.0768189,148.474696 6.12112821,126.714814 0.510295537,102.784231 C-1.22151501,95.4040758 -2.07040645,88.7403987 -2.22489581,82.8537918 C-2.32715038,78.9575203 -2.12042596,75.9130267 -1.79075335,73.8284599 C2.2104152,29.8099051 33.321916,-2.25 72.3144184,-2.25 C96.586896,-2.25 118.54233,10.1817757 132.082586,31.2289142 C145.825919,10.3995592 168.661854,-2.24485898 193.271218,-2.24485898 C232.267099,-2.24485898 263.3762,29.8134607 267.381731,73.836259 Z"></path>
                            <g id="Group-34" mask="url(#mask-8)">
                                <g transform="translate(6.438462, -0.545805)">
                                    <mask id="mask-10" fill="white">
                                        <use xlink:href="#path-9"></use>
                                    </mask>
                                    <path stroke="#DCB5EE" stroke-width="9" d="M269.616052,73.5620458 C269.958106,75.7963473 270.16557,78.9307319 270.06038,82.9179373 C269.901047,88.95748 269.032686,95.7711691 267.26608,103.297226 C261.55137,127.676191 248.360624,149.830862 229.120585,167.382657 L131.972761,254.613408 L128.963724,251.864988 L36.4392446,167.354162 C17.2285467,149.83427 4.0353534,127.675487 -1.68020348,103.298248 C-3.4473299,95.7675939 -4.31564179,88.951469 -4.47412135,82.912821 C-4.57882756,78.9231336 -4.36884112,75.7675345 -4.02486138,73.5518551 C0.104606455,28.4659394 32.1169636,-4.5 72.3144184,-4.5 C98.2002166,-4.5 112.818972,1.26620139 124.912077,18.8473523 C131.642679,10.6953593 141.183538,4.82733225 153.023004,0.997072738 C164.763409,-2.80113919 178.419463,-4.49485898 193.271218,-4.49485898 C233.472807,-4.49485898 265.483137,28.470695 269.616052,73.5620458 Z"></path>
                                </g>
                            </g>
                            <path d="M38.3625046,85.7400444 C40.8918728,56.473998 56.8746915,40.7156136 86.3109607,38.4648913" id="Path-6" stroke="#DCB5EE" stroke-width="6" stroke-linecap="round" mask="url(#mask-8)"></path>
                            <path d="M35.4115427,82.7812067 C37.9409109,53.5151602 53.9237296,37.7567758 83.3599988,35.5060535" id="Path-6" stroke="#AC4FD9" stroke-width="6" stroke-linecap="round" mask="url(#mask-8)"></path>
                        </g>
                    </g>
                </g>
            </g>
        </g>
    </g>
</svg>